00:16:17
<yahoo> loading only 1500000 examples	
<yahoo> done	
--------------------------------	
 loaded dataset "train"	
inputs	1500000	
targets	 1500000
[torch.LongStorage of size 1]

--------------------------------	
<yahoo> done	
--------------------------------	
 loaded dataset "valid"	
inputs	222547	
targets	 222547
[torch.LongStorage of size 1]

--------------------------------	
0,0.693142,0.692929	
1,0.692809,0.686816	
2,0.686676,0.690045	
3,0.688224,0.685941	
4,0.683764,0.686013	
5,0.683455,0.685421	
6,0.683297,0.692675	
7,0.689227,0.691413	
8,0.690826,0.689325	
9,0.688137,0.686278	
10,0.683907,0.684108	
11,0.680901,0.682833	
12,0.680633,0.685371	
13,0.681593,0.684731	
14,0.682647,0.682760	
15,0.680006,0.682624	
16,0.679467,0.682218	
17,0.679203,0.681399	
18,0.678800,0.684132	
19,0.680268,0.683539	
20,0.682383,0.684856	
21,0.680648,0.681161	
22,0.678963,0.682772	
23,0.678639,0.680288	
24,0.678346,0.683259	
25,0.678900,0.679706	
26,0.677505,0.680947	
27,0.677066,0.679218	
28,0.677276,0.681725	
29,0.677538,0.679902	
