00:19:35
<microsoft> done	
--------------------------------	
 loaded dataset "train"	
inputs	3501197	
targets	 3501197
[torch.LongStorage of size 1]

--------------------------------	
<microsoft> loading only 500000 examples	
<microsoft> done	
--------------------------------	
 loaded dataset "valid"	
inputs	500000	
targets	 500000
[torch.LongStorage of size 1]

--------------------------------	
0,0.693719,0.689608	
1,0.689955,0.688376	
2,0.688766,0.687792	
3,0.688351,0.687173	
4,0.687798,0.686905	
5,0.687461,0.686549	
6,0.687025,0.686119	
7,0.686787,0.685650	
8,0.686391,0.685309	
9,0.686134,0.685185	
10,0.685971,0.684888	
11,0.685726,0.684848	
12,0.685625,0.684753	
13,0.685586,0.684566	
14,0.685470,0.684452	
15,0.685363,0.684359	
16,0.685240,0.684356	
17,0.685119,0.684338	
18,0.685012,0.684314	
19,0.684869,0.684167	
20,0.684755,0.684087	
21,0.684692,0.684091	
22,0.684650,0.684130	
23,0.684588,0.684085	
24,0.684481,0.684022	
25,0.684440,0.683962	
26,0.684389,0.684049	
27,0.684332,0.684082	
28,0.684297,0.684055	
29,0.684270,0.684039	
