00:27:30
<yahoo> loading only 1500000 examples	
<yahoo> done	
--------------------------------	
 loaded dataset "train"	
inputs	1500000	
targets	 1500000
[torch.LongStorage of size 1]

--------------------------------	
<yahoo> done	
--------------------------------	
 loaded dataset "valid"	
inputs	222547	
targets	 222547
[torch.LongStorage of size 1]

--------------------------------	
0,0.694276,0.685703	
1,0.682927,0.684330	
2,0.681669,0.683186	
3,0.680359,0.681445	
4,0.678949,0.679931	
5,0.676991,0.678676	
6,0.675875,0.677714	
7,0.674874,0.677609	
8,0.674340,0.677325	
9,0.673911,0.676766	
10,0.673499,0.676257	
11,0.673033,0.676170	
12,0.672805,0.676016	
13,0.672578,0.675452	
14,0.672150,0.675132	
15,0.671846,0.674864	
16,0.671449,0.674718	
17,0.671136,0.674554	
18,0.670889,0.674351	
19,0.670602,0.674078	
20,0.670335,0.673931	
21,0.670026,0.673829	
22,0.669829,0.673571	
23,0.669554,0.673499	
24,0.669308,0.673397	
25,0.668978,0.673208	
26,0.668752,0.673078	
27,0.668439,0.673011	
28,0.668193,0.672974	
29,0.668023,0.672981	
